<?xml version="1.0" encoding="utf-8"?>
<COLLADA xmlns="http://www.collada.org/2005/11/COLLADASchema" version="1.4.1">
  <asset>
    <contributor>
      <author/>
      <authoring_tool>FBX COLLADA exporter</authoring_tool>
      <comments/>
    </contributor>
    <created>2020-06-26T15:13:40Z</created>
    <keywords/>
    <modified>2020-06-26T15:13:40Z</modified>
    <revision/>
    <subject/>
    <title/>
    <unit meter="0.010000" name="centimeter"/>
    <up_axis>Y_UP</up_axis>
  </asset>
  <library_materials>
    <material id="room" name="room">
      <instance_effect url="#room-fx"/>
    </material>
  </library_materials>
  <library_effects>
    <effect id="room-fx" name="room">
      <profile_COMMON>
        <technique sid="standard">
          <lambert>
            <emission>
              <color sid="emission">0.000000  0.000000 0.000000 1.000000</color>
            </emission>
            <ambient>
              <color sid="ambient">0.000000  0.000000 0.000000 1.000000</color>
            </ambient>
            <diffuse>
              <color sid="diffuse">0.346058  0.348800 0.269274 1.000000</color>
            </diffuse>
            <transparent opaque="RGB_ZERO">
              <color sid="transparent">0.000000  0.000000 0.000000 1.000000</color>
            </transparent>
            <transparency>
              <float sid="transparency">1.000000</float>
            </transparency>
          </lambert>
        </technique>
      </profile_COMMON>
    </effect>
  </library_effects>
  <library_geometries>
    <geometry id="Room-lib" name="RoomMesh">
      <mesh>
        <source id="Room-POSITION">
          <float_array id="Room-POSITION-array" count="168">
-4.483546 6.417956 -5.474140
-4.483546 -0.208257 -5.474140
4.483546 -0.208257 -5.474140
4.483546 6.417956 -5.474140
5.300396 -0.208257 4.605324
5.300396 6.417956 4.605324
5.300396 6.417956 -4.605324
5.300396 -0.208257 -4.605324
5.300396 6.417956 -5.474140
5.300396 -0.208257 -5.474140
-4.483546 -0.208257 5.612319
-4.483546 6.417956 5.612319
4.483546 6.417956 5.612319
4.483546 -0.208257 5.612319
5.300396 6.417956 5.612319
5.300396 -0.208257 5.612319
-5.376849 6.417956 -4.605324
-5.376849 -0.208257 -4.605324
-5.376849 6.417956 4.605324
-5.376849 -0.208257 4.605324
-5.376849 -0.208257 -5.474140
-5.376849 6.417956 -5.474140
-5.376849 6.417956 5.612319
-5.376849 -0.208257 5.612319
-4.483546 7.324574 4.605324
-4.483546 7.324574 -4.605324
4.483546 7.324574 -4.605324
4.483546 7.324574 4.605324
-4.483546 7.324574 -5.474140
4.483546 7.324574 -5.474140
5.300396 7.324574 -4.605324
5.300396 7.324574 4.605324
5.300396 7.324574 -5.474140
4.483546 7.324574 5.612319
-4.483546 7.324574 5.612319
5.300396 7.324574 5.612319
-5.376849 7.324574 4.605324
-5.376849 7.324574 -4.605324
-5.376849 7.324574 -5.474140
-5.376849 7.324574 5.612319
-4.483546 -0.825918 -4.605324
-4.483546 -0.825918 4.605324
4.483546 -0.825918 4.605324
4.483546 -0.825918 -4.605324
4.483546 -0.825918 -5.474140
-4.483546 -0.825918 -5.474140
5.300396 -0.825918 4.605324
5.300396 -0.825918 -4.605324
5.300396 -0.825918 -5.474140
-4.483546 -0.825918 5.612319
4.483546 -0.825918 5.612319
5.300396 -0.825918 5.612319
-5.376849 -0.825918 -4.605324
-5.376849 -0.825918 4.605324
-5.376849 -0.825918 -5.474140
-5.376849 -0.825918 5.612319
</float_array>
          <technique_common>
            <accessor source="#Room-POSITION-array" count="56" stride="3">
              <param name="X" type="float"/>
              <param name="Y" type="float"/>
              <param name="Z" type="float"/>
            </accessor>
          </technique_common>
        </source>
        <source id="Room-Normal0">
          <float_array id="Room-Normal0-array" count="972">
0.000000 0.000000 -1.000000
0.000000 0.000000 -1.000000
0.000000 0.000000 -1.000000
0.000000 0.000000 -1.000000
0.000000 0.000000 -1.000000
0.000000 0.000000 -1.000000
0.000000 -1.000000 0.000000
0.000000 -1.000000 0.000000
0.000000 -1.000000 0.000000
0.000000 -1.000000 0.000000
0.000000 -1.000000 0.000000
0.000000 -1.000000 0.000000
0.000000 0.000000 1.000000
0.000000 0.000000 1.000000
0.000000 0.000000 1.000000
0.000000 0.000000 1.000000
0.000000 0.000000 1.000000
0.000000 0.000000 1.000000
0.000000 1.000000 0.000000
0.000000 1.000000 0.000000
0.000000 1.000000 0.000000
0.000000 1.000000 0.000000
0.000000 1.000000 0.000000
0.000000 1.000000 0.000000
-1.000000 0.000000 0.000000
-1.000000 0.000000 0.000000
-1.000000 0.000000 0.000000
-1.000000 0.000000 0.000000
-1.000000 0.000000 0.000000
-1.000000 0.000000 0.000000
1.000000 0.000000 0.000000
1.000000 0.000000 0.000000
1.000000 0.000000 0.000000
1.000000 0.000000 0.000000
1.000000 0.000000 0.000000
1.000000 0.000000 0.000000
1.000000 0.000000 0.000000
1.000000 0.000000 0.000000
1.000000 0.000000 0.000000
1.000000 0.000000 0.000000
1.000000 0.000000 0.000000
1.000000 0.000000 0.000000
0.000000 1.000000 0.000000
0.000000 1.000000 0.000000
0.000000 1.000000 0.000000
0.000000 1.000000 0.000000
0.000000 1.000000 0.000000
0.000000 1.000000 0.000000
-1.000000 0.000000 0.000000
-1.000000 0.000000 0.000000
-1.000000 0.000000 0.000000
-1.000000 0.000000 0.000000
-1.000000 0.000000 0.000000
-1.000000 0.000000 0.000000
0.000000 -1.000000 0.000000
0.000000 -1.000000 0.000000
0.000000 -1.000000 0.000000
0.000000 -1.000000 0.000000
0.000000 -1.000000 0.000000
0.000000 -1.000000 0.000000
0.000000 0.000000 -1.000000
0.000000 0.000000 -1.000000
0.000000 0.000000 -1.000000
0.000000 0.000000 -1.000000
0.000000 0.000000 -1.000000
0.000000 0.000000 -1.000000
0.000000 -1.000000 0.000000
0.000000 -1.000000 0.000000
0.000000 -1.000000 0.000000
0.000000 -1.000000 0.000000
0.000000 -1.000000 0.000000
0.000000 -1.000000 0.000000
0.000000 1.000000 0.000000
0.000000 1.000000 0.000000
0.000000 1.000000 0.000000
0.000000 1.000000 0.000000
0.000000 1.000000 0.000000
0.000000 1.000000 0.000000
0.000000 -1.000000 0.000000
0.000000 -1.000000 0.000000
0.000000 -1.000000 0.000000
0.000000 -1.000000 0.000000
0.000000 -1.000000 0.000000
0.000000 -1.000000 0.000000
0.000000 0.000000 1.000000
0.000000 0.000000 1.000000
0.000000 0.000000 1.000000
0.000000 0.000000 1.000000
0.000000 0.000000 1.000000
0.000000 0.000000 1.000000
0.000000 1.000000 0.000000
0.000000 1.000000 0.000000
0.000000 1.000000 0.000000
0.000000 1.000000 0.000000
0.000000 1.000000 0.000000
0.000000 1.000000 0.000000
1.000000 0.000000 0.000000
1.000000 0.000000 0.000000
1.000000 0.000000 0.000000
1.000000 0.000000 0.000000
1.000000 0.000000 0.000000
1.000000 0.000000 0.000000
0.000000 -1.000000 0.000000
0.000000 -1.000000 0.000000
0.000000 -1.000000 0.000000
0.000000 -1.000000 0.000000
0.000000 -1.000000 0.000000
0.000000 -1.000000 0.000000
0.000000 1.000000 0.000000
0.000000 1.000000 0.000000
0.000000 1.000000 0.000000
0.000000 1.000000 0.000000
0.000000 1.000000 0.000000
0.000000 1.000000 0.000000
0.000000 -1.000000 0.000000
0.000000 -1.000000 0.000000
0.000000 -1.000000 0.000000
0.000000 -1.000000 0.000000
0.000000 -1.000000 0.000000
0.000000 -1.000000 0.000000
-1.000000 0.000000 0.000000
-1.000000 0.000000 0.000000
-1.000000 0.000000 0.000000
-1.000000 0.000000 0.000000
-1.000000 0.000000 0.000000
-1.000000 0.000000 0.000000
0.000000 1.000000 0.000000
0.000000 1.000000 0.000000
0.000000 1.000000 0.000000
0.000000 1.000000 0.000000
0.000000 1.000000 0.000000
0.000000 1.000000 0.000000
0.000000 -1.000000 0.000000
0.000000 -1.000000 0.000000
0.000000 -1.000000 0.000000
0.000000 -1.000000 0.000000
0.000000 -1.000000 0.000000
0.000000 -1.000000 0.000000
0.000000 1.000000 0.000000
0.000000 1.000000 0.000000
0.000000 1.000000 0.000000
0.000000 1.000000 0.000000
0.000000 1.000000 0.000000
0.000000 1.000000 0.000000
0.000000 1.000000 0.000000
0.000000 1.000000 0.000000
0.000000 1.000000 0.000000
0.000000 1.000000 0.000000
0.000000 1.000000 0.000000
0.000000 1.000000 0.000000
0.000000 0.000000 1.000000
0.000000 0.000000 1.000000
0.000000 0.000000 1.000000
0.000000 0.000000 1.000000
0.000000 0.000000 1.000000
0.000000 0.000000 1.000000
0.000000 -1.000000 0.000000
0.000000 -1.000000 0.000000
0.000000 -1.000000 0.000000
0.000000 -1.000000 0.000000
0.000000 -1.000000 0.000000
0.000000 -1.000000 0.000000
0.000000 -1.000000 0.000000
0.000000 -1.000000 0.000000
0.000000 -1.000000 0.000000
0.000000 -1.000000 0.000000
0.000000 -1.000000 0.000000
0.000000 -1.000000 0.000000
0.000000 0.000000 -1.000000
0.000000 0.000000 -1.000000
0.000000 0.000000 -1.000000
0.000000 0.000000 -1.000000
0.000000 0.000000 -1.000000
0.000000 0.000000 -1.000000
0.000000 1.000000 0.000000
0.000000 1.000000 0.000000
0.000000 1.000000 0.000000
0.000000 1.000000 0.000000
0.000000 1.000000 0.000000
0.000000 1.000000 0.000000
0.000000 0.000000 1.000000
0.000000 0.000000 1.000000
0.000000 0.000000 1.000000
0.000000 0.000000 1.000000
0.000000 0.000000 1.000000
0.000000 0.000000 1.000000
-1.000000 0.000000 0.000000
-1.000000 0.000000 0.000000
-1.000000 0.000000 0.000000
-1.000000 0.000000 0.000000
-1.000000 0.000000 0.000000
-1.000000 0.000000 0.000000
0.000000 0.000000 1.000000
0.000000 0.000000 1.000000
0.000000 0.000000 1.000000
0.000000 0.000000 1.000000
0.000000 0.000000 1.000000
0.000000 0.000000 1.000000
-1.000000 0.000000 0.000000
-1.000000 0.000000 0.000000
-1.000000 0.000000 0.000000
-1.000000 0.000000 0.000000
-1.000000 0.000000 0.000000
-1.000000 0.000000 0.000000
0.000000 0.000000 -1.000000
0.000000 0.000000 -1.000000
0.000000 0.000000 -1.000000
0.000000 0.000000 -1.000000
0.000000 0.000000 -1.000000
0.000000 0.000000 -1.000000
-1.000000 0.000000 0.000000
-1.000000 0.000000 0.000000
-1.000000 0.000000 0.000000
-1.000000 0.000000 0.000000
-1.000000 0.000000 0.000000
-1.000000 0.000000 0.000000
0.000000 0.000000 -1.000000
0.000000 0.000000 -1.000000
0.000000 0.000000 -1.000000
0.000000 0.000000 -1.000000
0.000000 0.000000 -1.000000
0.000000 0.000000 -1.000000
1.000000 0.000000 0.000000
1.000000 0.000000 0.000000
1.000000 0.000000 0.000000
1.000000 0.000000 0.000000
1.000000 0.000000 0.000000
1.000000 0.000000 0.000000
1.000000 0.000000 0.000000
1.000000 0.000000 0.000000
1.000000 0.000000 0.000000
1.000000 0.000000 0.000000
1.000000 0.000000 0.000000
1.000000 0.000000 0.000000
0.000000 0.000000 1.000000
0.000000 0.000000 1.000000
0.000000 0.000000 1.000000
0.000000 0.000000 1.000000
0.000000 0.000000 1.000000
0.000000 0.000000 1.000000
0.000000 0.000000 -1.000000
0.000000 0.000000 -1.000000
0.000000 0.000000 -1.000000
0.000000 0.000000 -1.000000
0.000000 0.000000 -1.000000
0.000000 0.000000 -1.000000
1.000000 0.000000 0.000000
1.000000 0.000000 0.000000
1.000000 0.000000 0.000000
1.000000 0.000000 0.000000
1.000000 0.000000 0.000000
1.000000 0.000000 0.000000
0.000000 0.000000 1.000000
0.000000 0.000000 1.000000
0.000000 0.000000 1.000000
0.000000 0.000000 1.000000
0.000000 0.000000 1.000000
0.000000 0.000000 1.000000
-1.000000 0.000000 0.000000
-1.000000 0.000000 0.000000
-1.000000 0.000000 0.000000
-1.000000 0.000000 0.000000
-1.000000 0.000000 0.000000
-1.000000 0.000000 0.000000
-1.000000 0.000000 0.000000
-1.000000 0.000000 0.000000
-1.000000 0.000000 0.000000
-1.000000 0.000000 0.000000
-1.000000 0.000000 0.000000
-1.000000 0.000000 0.000000
0.000000 0.000000 1.000000
0.000000 0.000000 1.000000
0.000000 0.000000 1.000000
0.000000 0.000000 1.000000
0.000000 0.000000 1.000000
0.000000 0.000000 1.000000
0.000000 0.000000 -1.000000
0.000000 0.000000 -1.000000
0.000000 0.000000 -1.000000
0.000000 0.000000 -1.000000
0.000000 0.000000 -1.000000
0.000000 0.000000 -1.000000
0.000000 0.000000 -1.000000
0.000000 0.000000 -1.000000
0.000000 0.000000 -1.000000
0.000000 0.000000 -1.000000
0.000000 0.000000 -1.000000
0.000000 0.000000 -1.000000
-1.000000 0.000000 0.000000
-1.000000 0.000000 0.000000
-1.000000 0.000000 0.000000
-1.000000 0.000000 0.000000
-1.000000 0.000000 0.000000
-1.000000 0.000000 0.000000
1.000000 0.000000 0.000000
1.000000 0.000000 0.000000
1.000000 0.000000 0.000000
1.000000 0.000000 0.000000
1.000000 0.000000 0.000000
1.000000 0.000000 0.000000
0.000000 0.000000 1.000000
0.000000 0.000000 1.000000
0.000000 0.000000 1.000000
0.000000 0.000000 1.000000
0.000000 0.000000 1.000000
0.000000 0.000000 1.000000
1.000000 0.000000 0.000000
1.000000 0.000000 0.000000
1.000000 0.000000 0.000000
1.000000 0.000000 0.000000
1.000000 0.000000 0.000000
1.000000 0.000000 0.000000
1.000000 0.000000 0.000000
1.000000 0.000000 0.000000
1.000000 0.000000 0.000000
1.000000 0.000000 0.000000
1.000000 0.000000 0.000000
1.000000 0.000000 0.000000
0.000000 0.000000 -1.000000
0.000000 0.000000 -1.000000
0.000000 0.000000 -1.000000
0.000000 0.000000 -1.000000
0.000000 0.000000 -1.000000
0.000000 0.000000 -1.000000
</float_array>
          <technique_common>
            <accessor source="#Room-Normal0-array" count="324" stride="3">
              <param name="X" type="float"/>
              <param name="Y" type="float"/>
              <param name="Z" type="float"/>
            </accessor>
          </technique_common>
        </source>
        <source id="Room-UV0">
          <float_array id="Room-UV0-array" count="140">
0.375000 0.000000
0.625000 0.000000
0.375000 0.250000
0.625000 0.250000
0.375000 0.500000
0.625000 0.500000
0.375000 0.750000
0.625000 0.750000
0.375000 1.000000
0.625000 1.000000
0.875000 0.000000
0.875000 0.250000
0.125000 0.000000
0.125000 0.250000
0.375000 0.500000
0.375000 0.750000
0.625000 0.750000
0.625000 0.500000
0.625000 0.000000
0.625000 0.250000
0.875000 0.250000
0.875000 0.000000
0.625000 0.500000
0.625000 0.500000
0.625000 0.750000
0.625000 0.750000
0.375000 0.000000
0.375000 0.250000
0.625000 0.250000
0.625000 0.000000
0.625000 0.250000
0.625000 0.000000
0.125000 0.250000
0.375000 0.250000
0.375000 0.000000
0.125000 0.000000
0.375000 0.750000
0.375000 0.750000
0.375000 0.500000
0.375000 0.500000
0.375000 0.250000
0.375000 0.000000
0.375000 0.500000
0.625000 0.500000
0.875000 0.250000
0.625000 0.250000
0.625000 0.500000
0.625000 0.500000
0.625000 0.250000
0.375000 0.250000
0.625000 0.250000
0.375000 0.250000
0.125000 0.250000
0.375000 0.500000
0.375000 0.500000
0.375000 0.250000
0.625000 0.750000
0.375000 0.750000
0.625000 0.000000
0.875000 0.000000
0.625000 0.750000
0.625000 0.750000
0.375000 0.000000
0.625000 0.000000
0.625000 0.000000
0.125000 0.000000
0.375000 0.000000
0.375000 0.750000
0.375000 0.750000
0.375000 0.000000
</float_array>
          <technique_common>
            <accessor source="#Room-UV0-array" count="70" stride="2">
              <param name="S" type="float"/>
              <param name="T" type="float"/>
            </accessor>
          </technique_common>
        </source>
        <vertices id="Room-VERTEX">
          <input semantic="POSITION" source="#Room-POSITION"/>
        </vertices>
        <triangles count="108" material="room">
          <input semantic="VERTEX" offset="0" source="#Room-VERTEX"/>
          <input semantic="NORMAL" offset="1" source="#Room-Normal0"/>
          <input semantic="TEXCOORD" offset="2" set="0" source="#Room-UV0"/>
          <p> 13 0 29 10 1 26 12 2 28 10 3 26 11 4 27 12 5 28 27 6 3 24 7 2 26 8 5 24 9 2 25 10 4 26 11 5 3 12 17 0 13 14 2 14 16 0 15 14 1 16 15 2 17 16 42 18 9 40 19 6 41 20 8 40 21 6 42 22 9 43 23 7 5 24 19 6 25 20 4 26 18 4 27 18 6 28 20 7 29 21 18 30 33 19 31 34 17 32 35 18 33 33 17 34 35 16 35 32 16 36 39 17 37 36 20 38 37 16 39 39 20 40 37 21 41 38 40 42 6 43 43 7 44 44 56 40 45 6 44 46 56 45 47 57 7 48 25 6 49 22 8 50 23 7 51 25 8 52 23 9 53 24 26 54 5 25 55 4 28 56 42 26 57 5 28 58 42 29 59 43 14 60 30 15 61 31 13 62 29 13 63 29 12 64 28 14 65 30 30 66 44 31 67 45 27 68 3 27 69 3 26 70 11 30 71 44 46 72 58 43 73 10 42 74 1 43 75 10 46 76 58 47 77 59 30 78 47 26 79 5 32 80 46 26 81 5 29 82 43 32 83 46 9 84 24 8 85 23 3 86 17 3 87 17 2 88 16 9 89 24 47 90 60 44 91 56 43 92 7 44 93 56 47 94 60 48 95 61 22 96 40 23 97 41 19 98 34 22 99 40 19 100 34 18 101 33 33 102 48 34 103 49 24 104 2 33 105 48 24 106 2 27 107 3 49 108 62 50 109 63 42 110 1 49 111 62 42 112 1 41 113 0 35 114 50 33 115 48 27 116 3 35 117 50 27 118 3 31 119 45 15 120 31 14 121 30 5 122 19 15 123 31 5 124 19 4 125 18 50 126 63 51 127 64 46 128 58 50 129 63 46 130 58 42 131 1 36 132 51 25 133 13 24 134 2 25 135 13 36 136 51 37 137 52 52 138 65 53 139 66 41 140 0 41 141 0 40 142 12 52 143 65 52 144 68 40 145 6 54 146 67 40 147 6 45 148 57 54 149 67 21 150 38 1 151 15 0 152 14 1 153 15 21 154 38 20 155 37 37 156 53 28 157 42 25 158 4 28 159 42 37 160 53 38 161 54 39 162 55 24 163 2 34 164 49 24 165 2 39 166 55 36 167 51 23 168 41 11 169 27 10 170 26 11 171 27 23 172 41 22 173 40 55 174 69 49 175 62 53 176 66 49 177 62 41 178 0 53 179 66 29 180 43 28 181 42 0 182 14 29 183 43 0 184 14 3 185 17 31 186 45 6 187 20 5 188 19 6 189 20 31 190 45 30 191 44 32 192 46 29 193 43 3 194 17 32 195 46 3 196 17 8 197 23 30 198 47 8 199 23 6 200 22 8 201 23 30 202 47 32 203 46 12 204 28 11 205 27 34 206 49 12 207 28 34 208 49 33 209 48 35 210 50 5 211 19 14 212 30 5 213 19 35 214 50 31 215 45 33 216 48 14 217 30 12 218 28 14 219 30 33 220 48 35 221 50 37 222 52 36 223 51 18 224 33 18 225 33 16 226 32 37 227 52 37 228 53 16 229 39 38 230 54 16 231 39 21 232 38 38 233 54 28 234 42 38 235 54 21 236 38 28 237 42 21 238 38 0 239 14 22 240 40 39 241 55 11 242 27 11 243 27 39 244 55 34 245 49 39 246 55 22 247 40 36 248 51 22 249 40 18 250 33 36 251 51 2 252 16 1 253 15 45 254 57 2 255 16 45 256 57 44 257 56 47 258 59 46 259 58 4 260 18 4 261 18 7 262 21 47 263 59 47 264 60 7 265 25 48 266 61 7 267 25 9 268 24 48 269 61 2 270 16 44 271 56 9 272 24 9 273 24 44 274 56 48 275 61 50 276 63 49 277 62 10 278 26 50 279 63 10 280 26 13 281 29 51 282 64 50 283 63 13 284 29 51 285 64 13 286 29 15 287 31 51 288 64 15 289 31 46 290 58 15 291 31 4 292 18 46 293 58 53 294 66 17 295 35 19 296 34 17 297 35 53 298 66 52 299 65 54 300 67 1 301 15 20 302 37 1 303 15 54 304 67 45 305 57 52 306 68 20 307 37 17 308 36 20 309 37 52 310 68 54 311 67 55 312 69 19 313 34 23 314 41 19 315 34 55 316 69 53 317 66 49 318 62 55 319 69 23 320 41 49 321 62 23 322 41 10 323 26</p>
        </triangles>
      </mesh>
    </geometry>
  </library_geometries>
  <library_visual_scenes>
    <visual_scene id="maya_room" name="maya_room">
      <node name="Room" id="Room" sid="Room">
        <matrix sid="matrix">1.000000 0.000000 0.000000 0.000000 0.000000 1.000000 0.000000 0.000000 0.000000 0.000000 1.000000 0.000000 0.000000 0.000000 0.000000 1.000000</matrix>
        <instance_geometry url="#Room-lib">
          <bind_material>
            <technique_common>
              <instance_material symbol="room" target="#room"/>
            </technique_common>
          </bind_material>
        </instance_geometry>
        <extra>
          <technique profile="FCOLLADA">
            <visibility>1.000000</visibility>
          </technique>
        </extra>
      </node>
      <extra>
        <technique profile="MAX3D">
          <frame_rate>24.000000</frame_rate>
        </technique>
        <technique profile="FCOLLADA">
          <start_time>0.041667</start_time>
          <end_time>8.333333</end_time>
        </technique>
      </extra>
    </visual_scene>
  </library_visual_scenes>
  <scene>
    <instance_visual_scene url="#maya_room"/>
  </scene>
</COLLADA>
